{
    "serverPath": "your_path/loop-server/",
	"name": "Sender Name",
	"email": "email@test.com",
	"forum": "aj_unique_forum_name",
	"staging": true,
	"workingInternetPingCheck": [ { 
												"url": "https://someurl.com",
												"confirmationString": "sometext-returned" 
											},
											{ 
												"url": "https://someurl2.com",
												"confirmationString": "sometext2-returned"
											},
											{
												"url": "https://someurl3.com",
												"confirmationString": "sometext3-returned"
											} ]
}
